{
  "vpc_peerings": [
    {
      "id":"6e9bff8e-2d65-4301-9a48-f80a25ad89fa",
      "name":"my-new-vpc-peering-1",
      "vpc_ids":["880b7f98-f062-404d-b33c-458d545696f6","be76c5b4-c6c4-4fbb-a710-edbfe76c1982"],
      "created_at":"2024-04-03T21:48:41.995304079Z",
      "status":"ACTIVE"
    },
    {
      "id":"cea63fe9-d95a-4bf9-b1ad-a599c67dec73",
      "name":"my-new-vpc-peering-1",
      "vpc_ids":["4598983b-e0f4-4039-ac6e-07e487e2712b","d4b88c23-528b-462d-8433-8740398a46cf"],
      "created_at":"2024-04-03T21:48:45.995304079Z",
      "status":"ACTIVE"
    }
  ],
  "links": {
    "pages": {
      "first": "https://api.digitalocean.com/v2/vpc_peerings?page=1&per_page=2",
      "last": "https://api.digitalocean.com/v2/vpc_peerings?page=4&per_page=2",
      "next": "https://api.digitalocean.com/v2/vpc_peerings?page=3&per_page=2",
      "prev": "https://api.digitalocean.com/v2/vpc_peerings?page=1&per_page=2"
    }
  },
  "meta": {
    "total": 10
  }
}
