{
  "members":[
    {
      "urn":"do:loadbalancer:f79f2306-e26a-4625-a71b-7816d17e3a6c",
      "name":"load-balancer",
      "created_at":"2019-03-29T20:41:52Z"
    },
    {
      "urn":"do:kubernetes:7298aae4-7285-4079-8acb-98a6e24bbe15",
      "name":"k8s-1",
      "created_at":"2019-03-29T15:55:29Z"
    },
    {
      "urn":"do:kubernetes:40968f75-6505-454c-9633-7a96ec33531a",
      "name":"k8s-2",
      "created_at":"2019-03-29T15:55:29Z"
    }
  ],
  "links":{
    "pages":{
      "last":"https://api.digitalocean.com/v2/vpcs/b417fd19-dc7b-11e8-ac12-3cfdfea8c0f1/members?page=2&per_page=3",
      "next":"https://api.digitalocean.com/v2/vpcs/b417fd19-dc7b-11e8-ac12-3cfdfea8c0f1/members?page=2&per_page=3"
    }
  },
  "meta":{
    "total":5
  }
}